SpecialRigester/transcript
# do setting.do 
# ** Warning: (vlib-34) Library already exists at "work".
# Modifying modelsim.ini
# Model Technology ModelSim ALTERA vlog 6.3g_p1 Compiler 2008.08 Aug 13 2008
# -- Compiling module Rigester
# -- Compiling module TOP
# 
# Top level modules:
# 	TOP
# vsim TOP 
# Loading work.TOP
# Loading work.Rigester
# clk = 0 , sel = xxxx  , SIn = x , PIn = xxxx , POut = xxx, SOut = x 
# clk = 1 , sel = 0000  , SIn = x , PIn = xxxx , POut = xxx, SOut = x 
# clk = 0 , sel = 0000  , SIn = 1 , PIn = xxxx , POut = xxx, SOut = x 
# clk = 1 , sel = 0000  , SIn = 0 , PIn = xxxx , POut = xxx, SOut = x 
# clk = 0 , sel = 0000  , SIn = 0 , PIn = xxxx , POut = xxx, SOut = x 
# clk = 1 , sel = 0000  , SIn = 1 , PIn = xxxx , POut = xxx, SOut = 0 
# clk = 0 , sel = 0101  , SIn = 1 , PIn = xxxx , POut = xxx, SOut = 0 
# clk = 1 , sel = 1100  , SIn = 1 , PIn = xxxx , POut = xx1, SOut = 0 
# clk = 0 , sel = 1100  , SIn = 1 , PIn = xxxx , POut = xx1, SOut = 0 
# clk = 1 , sel = 1100  , SIn = 1 , PIn = xxxx , POut = xx1, SOut = 0 
# clk = 0 , sel = 1100  , SIn = 1 , PIn = xxxx , POut = xx1, SOut = 0 
# clk = 1 , sel = 1100  , SIn = 1 , PIn = xxxx , POut = xx1, SOut = 0 
# clk = 0 , sel = 1100  , SIn = 1 , PIn = xxxx , POut = xx1, SOut = 0 
# clk = 1 , sel = 1100  , SIn = 1 , PIn = xxxx , POut = xx1, SOut = 0 
# clk = 0 , sel = 1100  , SIn = 1 , PIn = xxxx , POut = xx1, SOut = 0 
# clk = 1 , sel = 1100  , SIn = 1 , PIn = xxxx , POut = xx1, SOut = 0 
# clk = 0 , sel = 1100  , SIn = 1 , PIn = xxxx , POut = xx1, SOut = 0 
# clk = 1 , sel = 1100  , SIn = 1 , PIn = xxxx , POut = xx1, SOut = 0 
# clk = 0 , sel = 1100  , SIn = 1 , PIn = xxxx , POut = xx1, SOut = 0 
# clk = 1 , sel = 1100  , SIn = 1 , PIn = xxxx , POut = xx1, SOut = 0 
# ** Warning: (vlib-34) Library already exists at "work".
# Modifying modelsim.ini
# Model Technology ModelSim ALTERA vlog 6.3g_p1 Compiler 2008.08 Aug 13 2008
# -- Compiling module Rigester
# -- Compiling module TOP
# 
# Top level modules:
# 	TOP
# vsim TOP 
# Loading work.TOP
# Loading work.Rigester
# clk = 0 , sel = xxxx  , SIn = x , PIn = xxxx , POut = xxxx, SOut = x 
# clk = 1 , sel = 0000  , SIn = x , PIn = xxxx , POut = xxxx, SOut = x 
# clk = 0 , sel = 0000  , SIn = 1 , PIn = xxxx , POut = xxxx, SOut = x 
# clk = 1 , sel = 0000  , SIn = 0 , PIn = xxxx , POut = xxxx, SOut = x 
# clk = 0 , sel = 0000  , SIn = 0 , PIn = xxxx , POut = xxxx, SOut = x 
# clk = 1 , sel = 0000  , SIn = 1 , PIn = xxxx , POut = xxxx, SOut = 0 
# clk = 0 , sel = 0101  , SIn = 1 , PIn = xxxx , POut = xxxx, SOut = 0 
# clk = 1 , sel = 1100  , SIn = 1 , PIn = xxxx , POut = xxx1, SOut = 0 
# clk = 0 , sel = 1100  , SIn = 1 , PIn = xxxx , POut = xxx1, SOut = 0 
# clk = 1 , sel = 1100  , SIn = 1 , PIn = xxxx , POut = xxx1, SOut = 0 
# clk = 0 , sel = 1100  , SIn = 1 , PIn = xxxx , POut = xxx1, SOut = 0 
# clk = 1 , sel = 1100  , SIn = 1 , PIn = xxxx , POut = xxx1, SOut = 0 
# clk = 0 , sel = 1100  , SIn = 1 , PIn = xxxx , POut = xxx1, SOut = 0 
# clk = 1 , sel = 1100  , SIn = 1 , PIn = xxxx , POut = xxx1, SOut = 0 
# clk = 0 , sel = 1100  , SIn = 1 , PIn = xxxx , POut = xxx1, SOut = 0 
# clk = 1 , sel = 1100  , SIn = 1 , PIn = xxxx , POut = xxx1, SOut = 0 
# clk = 0 , sel = 1100  , SIn = 1 , PIn = xxxx , POut = xxx1, SOut = 0 
# clk = 1 , sel = 1100  , SIn = 1 , PIn = xxxx , POut = xxx1, SOut = 0 
# clk = 0 , sel = 1100  , SIn = 1 , PIn = xxxx , POut = xxx1, SOut = 0 
# clk = 1 , sel = 1100  , SIn = 1 , PIn = xxxx , POut = xxx1, SOut = 0 
# ** Warning: (vlib-34) Library already exists at "work".
# Modifying modelsim.ini
# Model Technology ModelSim ALTERA vlog 6.3g_p1 Compiler 2008.08 Aug 13 2008
# -- Compiling module Rigester
# -- Compiling module TOP
# 
# Top level modules:
# 	TOP
# vsim TOP 
# Loading work.TOP
# Loading work.Rigester
# clk = 0 , sel = xxxx  , SIn = x , PIn = xxxx , POut = xxxx, SOut = x 
# clk = 1 , sel = 0000  , SIn = x , PIn = xxxx , POut = xxxx, SOut = x 
# clk = 0 , sel = 0000  , SIn = 1 , PIn = xxxx , POut = xxxx, SOut = x 
# clk = 1 , sel = 0000  , SIn = 0 , PIn = xxxx , POut = xxxx, SOut = x 
# clk = 0 , sel = 0000  , SIn = 0 , PIn = xxxx , POut = xxxx, SOut = x 
# clk = 1 , sel = 0000  , SIn = 1 , PIn = xxxx , POut = xxxx, SOut = 0 
# clk = 0 , sel = 0000  , SIn = 1 , PIn = xxxx , POut = xxxx, SOut = 0 
# clk = 1 , sel = 0000  , SIn = 1 , PIn = xxxx , POut = xxxx, SOut = 1 
# clk = 0 , sel = 0000  , SIn = 1 , PIn = xxxx , POut = xxxx, SOut = 1 
# clk = 1 , sel = 0000  , SIn = 1 , PIn = xxxx , POut = xxxx, SOut = 1 
# clk = 0 , sel = 0000  , SIn = 1 , PIn = xxxx , POut = xxxx, SOut = 1 
# clk = 1 , sel = 0000  , SIn = 1 , PIn = xxxx , POut = xxxx, SOut = 1 
# clk = 0 , sel = 0000  , SIn = 1 , PIn = xxxx , POut = xxxx, SOut = 1 
# clk = 1 , sel = 0101  , SIn = 1 , PIn = xxxx , POut = xxxx, SOut = 1 
# clk = 0 , sel = 1100  , SIn = 1 , PIn = xxxx , POut = xxxx, SOut = 1 
# clk = 1 , sel = 1100  , SIn = 1 , PIn = xxxx , POut = xxxx, SOut = 1 
# clk = 0 , sel = 1100  , SIn = 1 , PIn = xxxx , POut = xxxx, SOut = 1 
# clk = 1 , sel = 1100  , SIn = 1 , PIn = xxxx , POut = xxxx, SOut = 1 
# clk = 0 , sel = 1100  , SIn = 1 , PIn = xxxx , POut = xxxx, SOut = 1 
# clk = 1 , sel = 1100  , SIn = 1 , PIn = xxxx , POut = xxxx, SOut = 1 
# ** Warning: (vlib-34) Library already exists at "work".
# Modifying modelsim.ini
# Model Technology ModelSim ALTERA vlog 6.3g_p1 Compiler 2008.08 Aug 13 2008
# -- Compiling module Rigester
# -- Compiling module TOP
# 
# Top level modules:
# 	TOP
# vsim TOP 
# Loading work.TOP
# Loading work.Rigester
# clk = 0 , sel = xxxx  , SIn = x , PIn = xxxx , POut = xxxx, SOut = x 
# clk = 1 , sel = 0000  , SIn = x , PIn = xxxx , POut = xxxx, SOut = x 
# clk = 0 , sel = 0000  , SIn = 1 , PIn = xxxx , POut = xxxx, SOut = x 
# clk = 1 , sel = 0000  , SIn = 0 , PIn = xxxx , POut = xxxx, SOut = x 
# clk = 0 , sel = 0000  , SIn = 0 , PIn = xxxx , POut = xxxx, SOut = x 
# clk = 1 , sel = 0000  , SIn = 1 , PIn = xxxx , POut = xxxx, SOut = 0 
# clk = 0 , sel = 0000  , SIn = 1 , PIn = xxxx , POut = xxxx, SOut = 0 
# clk = 1 , sel = 0000  , SIn = 1 , PIn = xxxx , POut = xxxx, SOut = 1 
# clk = 0 , sel = 0000  , SIn = 1 , PIn = xxxx , POut = xxxx, SOut = 1 
# clk = 1 , sel = 0000  , SIn = 1 , PIn = xxxx , POut = xxxx, SOut = 1 
# clk = 0 , sel = 0000  , SIn = 1 , PIn = xxxx , POut = xxxx, SOut = 1 
# clk = 1 , sel = 0000  , SIn = 1 , PIn = xxxx , POut = xxxx, SOut = 1 
# clk = 0 , sel = 0000  , SIn = 1 , PIn = xxxx , POut = xxxx, SOut = 1 
# clk = 1 , sel = 0000  , SIn = 1 , PIn = xxxx , POut = xxxx, SOut = 1 
# clk = 0 , sel = 0000  , SIn = 1 , PIn = xxxx , POut = xxxx, SOut = 1 
# clk = 1 , sel = 0000  , SIn = 1 , PIn = xxxx , POut = xxxx, SOut = 1 
# clk = 0 , sel = 0000  , SIn = 1 , PIn = xxxx , POut = xxxx, SOut = 1 
# clk = 1 , sel = 0000  , SIn = 1 , PIn = xxxx , POut = xxxx, SOut = 1 
# clk = 0 , sel = 0000  , SIn = 1 , PIn = xxxx , POut = xxxx, SOut = 1 
# clk = 1 , sel = 0000  , SIn = 1 , PIn = xxxx , POut = xxxx, SOut = 1 
# clk = 0 , sel = 0000  , SIn = 1 , PIn = xxxx , POut = xxxx, SOut = 1 
# clk = 1 , sel = 0000  , SIn = 1 , PIn = xxxx , POut = xxxx, SOut = 1 
# clk = 0 , sel = 0000  , SIn = 1 , PIn = xxxx , POut = xxxx, SOut = 1 
# clk = 1 , sel = 0000  , SIn = 1 , PIn = xxxx , POut = xxxx, SOut = 1 
# clk = 0 , sel = 0000  , SIn = 1 , PIn = xxxx , POut = xxxx, SOut = 1 
# clk = 1 , sel = 0000  , SIn = 1 , PIn = xxxx , POut = xxxx, SOut = 1 
# clk = 0 , sel = 0000  , SIn = 1 , PIn = xxxx , POut = xxxx, SOut = 1 
# clk = 1 , sel = 0101  , SIn = 1 , PIn = xxxx , POut = xxxx, SOut = 1 
# clk = 0 , sel = 1100  , SIn = 1 , PIn = xxxx , POut = xxxx, SOut = 1 
# clk = 1 , sel = 1100  , SIn = 1 , PIn = xxxx , POut = xxxx, SOut = 1 
# clk = 0 , sel = 1100  , SIn = 1 , PIn = xxxx , POut = xxxx, SOut = 1 
# clk = 1 , sel = 1100  , SIn = 1 , PIn = xxxx , POut = xxxx, SOut = 1 
# clk = 0 , sel = 1100  , SIn = 1 , PIn = xxxx , POut = xxxx, SOut = 1 
# clk = 1 , sel = 1100  , SIn = 1 , PIn = xxxx , POut = xxxx, SOut = 1 
# clk = 0 , sel = 1100  , SIn = 1 , PIn = xxxx , POut = xxxx, SOut = 1 
# clk = 1 , sel = 1100  , SIn = 1 , PIn = xxxx , POut = xxxx, SOut = 1 
# clk = 0 , sel = 1100  , SIn = 1 , PIn = xxxx , POut = xxxx, SOut = 1 
# clk = 1 , sel = 1100  , SIn = 1 , PIn = xxxx , POut = xxxx, SOut = 1 
# clk = 0 , sel = 1100  , SIn = 1 , PIn = xxxx , POut = xxxx, SOut = 1 
# clk = 1 , sel = 1100  , SIn = 1 , PIn = xxxx , POut = xxxx, SOut = 1 
# clk = 0 , sel = 1100  , SIn = 1 , PIn = xxxx , POut = xxxx, SOut = 1 
# clk = 1 , sel = 1100  , SIn = 1 , PIn = xxxx , POut = xxxx, SOut = 1 
# clk = 0 , sel = 1100  , SIn = 1 , PIn = xxxx , POut = xxxx, SOut = 1 
# clk = 1 , sel = 1100  , SIn = 1 , PIn = xxxx , POut = xxxx, SOut = 1 
# clk = 0 , sel = 1100  , SIn = 1 , PIn = xxxx , POut = xxxx, SOut = 1 
# clk = 1 , sel = 1100  , SIn = 1 , PIn = xxxx , POut = xxxx, SOut = 1 
# clk = 0 , sel = 1100  , SIn = 1 , PIn = xxxx , POut = xxxx, SOut = 1 
# clk = 1 , sel = 1100  , SIn = 1 , PIn = xxxx , POut = xxxx, SOut = 1 
# clk = 0 , sel = 1100  , SIn = 1 , PIn = xxxx , POut = xxxx, SOut = 1 
# clk = 1 , sel = 1100  , SIn = 1 , PIn = xxxx , POut = xxxx, SOut = 1 
# ** Warning: (vlib-34) Library already exists at "work".
# Modifying modelsim.ini
# Model Technology ModelSim ALTERA vlog 6.3g_p1 Compiler 2008.08 Aug 13 2008
# -- Compiling module Rigester
# ** Error: Rigester.v(11): near ";": syntax error, unexpected ';', expecting ')' or ','
# ** Error: Rigester.v(17): near "1": syntax error, unexpected "INTEGER NUMBER"
# ** Error: RigesterTest.v(2): 'clk' already declared in this scope (Rigester).
# ** Error: RigesterTest.v(3): 'sel' already declared in this scope (Rigester).
# ** Error: RigesterTest.v(4): 'PIn' already declared in this scope (Rigester).
# ** Error: RigesterTest.v(5): 'SIn' already declared in this scope (Rigester).
# ** Error: RigesterTest.v(6): 'POut' already declared in this scope (Rigester).
# ** Error: RigesterTest.v(7): 'SOut' already declared in this scope (Rigester).
# ** Error: C:/altera/81/modelsim_ae/win32aloem/vlog failed.
# Error in macro ./setting.do line 3
# C:/altera/81/modelsim_ae/win32aloem/vlog failed.
#     while executing
# "vlog *.v"
# ** Warning: (vlib-34) Library already exists at "work".
# Modifying modelsim.ini
# Model Technology ModelSim ALTERA vlog 6.3g_p1 Compiler 2008.08 Aug 13 2008
# -- Compiling module Rigester
# -- Compiling module TOP
# 
# Top level modules:
# 	TOP
# vsim TOP 
# Loading work.TOP
# Loading work.Rigester
# clk = 0 , sel = xxxx  , SIn = x , PIn = xxxx , POut = xxxx, SOut = x 
#  x
# clk = 1 , sel = 0000  , SIn = x , PIn = xxxx , POut = xxxx, SOut = x 
# clk = 0 , sel = 0000  , SIn = 1 , PIn = xxxx , POut = xxxx, SOut = x 
#  x
# clk = 1 , sel = 0000  , SIn = 0 , PIn = xxxx , POut = xxxx, SOut = x 
# clk = 0 , sel = 0000  , SIn = 0 , PIn = xxxx , POut = xxxx, SOut = x 
#  X
# clk = 1 , sel = 0000  , SIn = 1 , PIn = xxxx , POut = xxxx, SOut = 0 
# clk = 0 , sel = 0000  , SIn = 1 , PIn = xxxx , POut = xxxx, SOut = 0 
#  X
# clk = 1 , sel = 0000  , SIn = 1 , PIn = xxxx , POut = xxxx, SOut = 1 
# clk = 0 , sel = 0000  , SIn = 1 , PIn = xxxx , POut = xxxx, SOut = 1 
#  X
# clk = 1 , sel = 0000  , SIn = 1 , PIn = xxxx , POut = xxxx, SOut = 1 
# clk = 0 , sel = 0000  , SIn = 1 , PIn = xxxx , POut = xxxx, SOut = 1 
#  X
# clk = 1 , sel = 0000  , SIn = 1 , PIn = xxxx , POut = xxxx, SOut = 1 
# clk = 0 , sel = 0000  , SIn = 1 , PIn = xxxx , POut = xxxx, SOut = 1 
#  X
# clk = 1 , sel = 0000  , SIn = 1 , PIn = xxxx , POut = xxxx, SOut = 1 
# clk = 0 , sel = 0000  , SIn = 1 , PIn = xxxx , POut = xxxx, SOut = 1 
#  X
# clk = 1 , sel = 0000  , SIn = 1 , PIn = xxxx , POut = xxxx, SOut = 1 
# clk = 0 , sel = 0000  , SIn = 1 , PIn = xxxx , POut = xxxx, SOut = 1 
#  X
# clk = 1 , sel = 0000  , SIn = 1 , PIn = xxxx , POut = xxxx, SOut = 1 
# clk = 0 , sel = 0000  , SIn = 1 , PIn = xxxx , POut = xxxx, SOut = 1 
#  X
# clk = 1 , sel = 0000  , SIn = 1 , PIn = xxxx , POut = xxxx, SOut = 1 
# clk = 0 , sel = 0000  , SIn = 1 , PIn = xxxx , POut = xxxx, SOut = 1 
#  X
# clk = 1 , sel = 0000  , SIn = 1 , PIn = xxxx , POut = xxxx, SOut = 1 
# clk = 0 , sel = 0000  , SIn = 1 , PIn = xxxx , POut = xxxx, SOut = 1 
#  X
# clk = 1 , sel = 0000  , SIn = 1 , PIn = xxxx , POut = xxxx, SOut = 1 
# clk = 0 , sel = 0000  , SIn = 1 , PIn = xxxx , POut = xxxx, SOut = 1 
#  X
# clk = 1 , sel = 0000  , SIn = 1 , PIn = xxxx , POut = xxxx, SOut = 1 
# clk = 0 , sel = 0000  , SIn = 1 , PIn = xxxx , POut = xxxx, SOut = 1 
#  X
# clk = 1 , sel = 0101  , SIn = 1 , PIn = xxxx , POut = xxxx, SOut = 1 
# clk = 0 , sel = 1100  , SIn = 1 , PIn = xxxx , POut = xxxx, SOut = 1 
#  x
# clk = 1 , sel = 1100  , SIn = 1 , PIn = xxxx , POut = xxxx, SOut = 1 
# clk = 0 , sel = 1100  , SIn = 1 , PIn = xxxx , POut = xxxx, SOut = 1 
#  x
# clk = 1 , sel = 1100  , SIn = 1 , PIn = xxxx , POut = xxxx, SOut = 1 
# clk = 0 , sel = 1100  , SIn = 1 , PIn = xxxx , POut = xxxx, SOut = 1 
#  x
# clk = 1 , sel = 1100  , SIn = 1 , PIn = xxxx , POut = xxxx, SOut = 1 
# clk = 0 , sel = 1100  , SIn = 1 , PIn = xxxx , POut = xxxx, SOut = 1 
#  x
# clk = 1 , sel = 1100  , SIn = 1 , PIn = xxxx , POut = xxxx, SOut = 1 
# clk = 0 , sel = 1100  , SIn = 1 , PIn = xxxx , POut = xxxx, SOut = 1 
#  x
# clk = 1 , sel = 1100  , SIn = 1 , PIn = xxxx , POut = xxxx, SOut = 1 
# clk = 0 , sel = 1100  , SIn = 1 , PIn = xxxx , POut = xxxx, SOut = 1 
#  x
# clk = 1 , sel = 1100  , SIn = 1 , PIn = xxxx , POut = xxxx, SOut = 1 
# clk = 0 , sel = 1100  , SIn = 1 , PIn = xxxx , POut = xxxx, SOut = 1 
#  x
# clk = 1 , sel = 1100  , SIn = 1 , PIn = xxxx , POut = xxxx, SOut = 1 
# clk = 0 , sel = 1100  , SIn = 1 , PIn = xxxx , POut = xxxx, SOut = 1 
#  x
# clk = 1 , sel = 1100  , SIn = 1 , PIn = xxxx , POut = xxxx, SOut = 1 
# clk = 0 , sel = 1100  , SIn = 1 , PIn = xxxx , POut = xxxx, SOut = 1 
#  x
# clk = 1 , sel = 1100  , SIn = 1 , PIn = xxxx , POut = xxxx, SOut = 1 
# clk = 0 , sel = 1100  , SIn = 1 , PIn = xxxx , POut = xxxx, SOut = 1 
#  x
# clk = 1 , sel = 1100  , SIn = 1 , PIn = xxxx , POut = xxxx, SOut = 1 
# clk = 0 , sel = 1100  , SIn = 1 , PIn = xxxx , POut = xxxx, SOut = 1 
#  x
# clk = 1 , sel = 1100  , SIn = 1 , PIn = xxxx , POut = xxxx, SOut = 1 
# ** Warning: (vlib-34) Library already exists at "work".
# Modifying modelsim.ini
# Model Technology ModelSim ALTERA vlog 6.3g_p1 Compiler 2008.08 Aug 13 2008
# -- Compiling module Rigester
# -- Compiling module TOP
# 
# Top level modules:
# 	TOP
# vsim TOP 
# Loading work.TOP
# Loading work.Rigester
# clk = 0 , sel = xxxx  , SIn = x , PIn = xxxx , POut = xxxx, SOut = x 
# xxxx
# clk = 1 , sel = 0000  , SIn = x , PIn = xxxx , POut = xxxx, SOut = x 
# clk = 0 , sel = 0000  , SIn = 1 , PIn = xxxx , POut = xxxx, SOut = x 
# xxxx
# clk = 1 , sel = 0000  , SIn = 0 , PIn = xxxx , POut = xxxx, SOut = x 
# clk = 0 , sel = 0000  , SIn = 0 , PIn = xxxx , POut = xxxx, SOut = x 
# xxx0
# clk = 1 , sel = 0000  , SIn = 1 , PIn = xxxx , POut = xxxx, SOut = 0 
# clk = 0 , sel = 0000  , SIn = 1 , PIn = xxxx , POut = xxxx, SOut = 0 
# xxx1
# clk = 1 , sel = 0000  , SIn = 1 , PIn = xxxx , POut = xxxx, SOut = 1 
# clk = 0 , sel = 0000  , SIn = 1 , PIn = xxxx , POut = xxxx, SOut = 1 
# xxx1
# clk = 1 , sel = 0000  , SIn = 1 , PIn = xxxx , POut = xxxx, SOut = 1 
# clk = 0 , sel = 0000  , SIn = 1 , PIn = xxxx , POut = xxxx, SOut = 1 
# xxx1
# clk = 1 , sel = 0000  , SIn = 1 , PIn = xxxx , POut = xxxx, SOut = 1 
# clk = 0 , sel = 0000  , SIn = 1 , PIn = xxxx , POut = xxxx, SOut = 1 
# xxx1
# clk = 1 , sel = 0000  , SIn = 1 , PIn = xxxx , POut = xxxx, SOut = 1 
# clk = 0 , sel = 0000  , SIn = 1 , PIn = xxxx , POut = xxxx, SOut = 1 
# xxx1
# clk = 1 , sel = 0000  , SIn = 1 , PIn = xxxx , POut = xxxx, SOut = 1 
# clk = 0 , sel = 0000  , SIn = 1 , PIn = xxxx , POut = xxxx, SOut = 1 
# xxx1
# clk = 1 , sel = 0000  , SIn = 1 , PIn = xxxx , POut = xxxx, SOut = 1 
# clk = 0 , sel = 0000  , SIn = 1 , PIn = xxxx , POut = xxxx, SOut = 1 
# xxx1
# clk = 1 , sel = 0000  , SIn = 1 , PIn = xxxx , POut = xxxx, SOut = 1 
# clk = 0 , sel = 0000  , SIn = 1 , PIn = xxxx , POut = xxxx, SOut = 1 
# xxx1
# clk = 1 , sel = 0000  , SIn = 1 , PIn = xxxx , POut = xxxx, SOut = 1 
# clk = 0 , sel = 0000  , SIn = 1 , PIn = xxxx , POut = xxxx, SOut = 1 
# xxx1
# clk = 1 , sel = 0000  , SIn = 1 , PIn = xxxx , POut = xxxx, SOut = 1 
# clk = 0 , sel = 0000  , SIn = 1 , PIn = xxxx , POut = xxxx, SOut = 1 
# xxx1
# clk = 1 , sel = 0000  , SIn = 1 , PIn = xxxx , POut = xxxx, SOut = 1 
# clk = 0 , sel = 0000  , SIn = 1 , PIn = xxxx , POut = xxxx, SOut = 1 
# xxx1
# clk = 1 , sel = 0101  , SIn = 1 , PIn = xxxx , POut = xxxx, SOut = 1 
# clk = 0 , sel = 1100  , SIn = 1 , PIn = xxxx , POut = xxxx, SOut = 1 
# xxxx
# clk = 1 , sel = 1100  , SIn = 1 , PIn = xxxx , POut = xxxx, SOut = 1 
# clk = 0 , sel = 1100  , SIn = 1 , PIn = xxxx , POut = xxxx, SOut = 1 
# xxxx
# clk = 1 , sel = 1100  , SIn = 1 , PIn = xxxx , POut = xxxx, SOut = 1 
# clk = 0 , sel = 1100  , SIn = 1 , PIn = xxxx , POut = xxxx, SOut = 1 
# xxxx
# clk = 1 , sel = 1100  , SIn = 1 , PIn = xxxx , POut = xxxx, SOut = 1 
# clk = 0 , sel = 1100  , SIn = 1 , PIn = xxxx , POut = xxxx, SOut = 1 
# xxxx
# clk = 1 , sel = 1100  , SIn = 1 , PIn = xxxx , POut = xxxx, SOut = 1 
# clk = 0 , sel = 1100  , SIn = 1 , PIn = xxxx , POut = xxxx, SOut = 1 
# xxxx
# clk = 1 , sel = 1100  , SIn = 1 , PIn = xxxx , POut = xxxx, SOut = 1 
# clk = 0 , sel = 1100  , SIn = 1 , PIn = xxxx , POut = xxxx, SOut = 1 
# xxxx
# clk = 1 , sel = 1100  , SIn = 1 , PIn = xxxx , POut = xxxx, SOut = 1 
# clk = 0 , sel = 1100  , SIn = 1 , PIn = xxxx , POut = xxxx, SOut = 1 
# xxxx
# clk = 1 , sel = 1100  , SIn = 1 , PIn = xxxx , POut = xxxx, SOut = 1 
# clk = 0 , sel = 1100  , SIn = 1 , PIn = xxxx , POut = xxxx, SOut = 1 
# xxxx
# clk = 1 , sel = 1100  , SIn = 1 , PIn = xxxx , POut = xxxx, SOut = 1 
# clk = 0 , sel = 1100  , SIn = 1 , PIn = xxxx , POut = xxxx, SOut = 1 
# xxxx
# clk = 1 , sel = 1100  , SIn = 1 , PIn = xxxx , POut = xxxx, SOut = 1 
# clk = 0 , sel = 1100  , SIn = 1 , PIn = xxxx , POut = xxxx, SOut = 1 
# xxxx
# clk = 1 , sel = 1100  , SIn = 1 , PIn = xxxx , POut = xxxx, SOut = 1 
# clk = 0 , sel = 1100  , SIn = 1 , PIn = xxxx , POut = xxxx, SOut = 1 
# xxxx
# clk = 1 , sel = 1100  , SIn = 1 , PIn = xxxx , POut = xxxx, SOut = 1 
# ** Warning: (vlib-34) Library already exists at "work".
# Modifying modelsim.ini
# Model Technology ModelSim ALTERA vlog 6.3g_p1 Compiler 2008.08 Aug 13 2008
# -- Compiling module Rigester
# -- Compiling module TOP
# 
# Top level modules:
# 	TOP
# vsim TOP 
# Loading work.TOP
# Loading work.Rigester
# clk = 0 , sel = xxxx  , SIn = x , PIn = xxxx , POut = xxxx, SOut = x 
# xxxx
# clk = 1 , sel = 0000  , SIn = x , PIn = xxxx , POut = xxxx, SOut = x 
# clk = 0 , sel = 0000  , SIn = 1 , PIn = xxxx , POut = xxxx, SOut = x 
# xxxx
# clk = 1 , sel = 0000  , SIn = 1 , PIn = xxxx , POut = xxxx, SOut = x 
# clk = 0 , sel = 0000  , SIn = 0 , PIn = xxxx , POut = xxxx, SOut = x 
# xxx1
# clk = 1 , sel = 0000  , SIn = 0 , PIn = xxxx , POut = xxxx, SOut = 1 
# clk = 0 , sel = 0000  , SIn = 1 , PIn = xxxx , POut = xxxx, SOut = 1 
# xxx0
# clk = 1 , sel = 0000  , SIn = 1 , PIn = xxxx , POut = xxxx, SOut = 0 
# clk = 0 , sel = 0000  , SIn = 1 , PIn = xxxx , POut = xxxx, SOut = 0 
# xxx1
# clk = 1 , sel = 0000  , SIn = 1 , PIn = xxxx , POut = xxxx, SOut = 1 
# clk = 0 , sel = 0000  , SIn = 1 , PIn = xxxx , POut = xxxx, SOut = 1 
# xxx1
# clk = 1 , sel = 0000  , SIn = 1 , PIn = xxxx , POut = xxxx, SOut = 1 
# clk = 0 , sel = 0000  , SIn = 1 , PIn = xxxx , POut = xxxx, SOut = 1 
# xxx1
# clk = 1 , sel = 0000  , SIn = 1 , PIn = xxxx , POut = xxxx, SOut = 1 
# clk = 0 , sel = 0000  , SIn = 1 , PIn = xxxx , POut = xxxx, SOut = 1 
# xxx1
# clk = 1 , sel = 0000  , SIn = 1 , PIn = xxxx , POut = xxxx, SOut = 1 
# clk = 0 , sel = 0000  , SIn = 1 , PIn = xxxx , POut = xxxx, SOut = 1 
# xxx1
# clk = 1 , sel = 0000  , SIn = 1 , PIn = xxxx , POut = xxxx, SOut = 1 
# clk = 0 , sel = 0000  , SIn = 1 , PIn = xxxx , POut = xxxx, SOut = 1 
# xxx1
# clk = 1 , sel = 0000  , SIn = 1 , PIn = xxxx , POut = xxxx, SOut = 1 
# clk = 0 , sel = 0000  , SIn = 1 , PIn = xxxx , POut = xxxx, SOut = 1 
# xxx1
# clk = 1 , sel = 0000  , SIn = 1 , PIn = xxxx , POut = xxxx, SOut = 1 
# clk = 0 , sel = 0000  , SIn = 1 , PIn = xxxx , POut = xxxx, SOut = 1 
# xxx1
# clk = 1 , sel = 0000  , SIn = 1 , PIn = xxxx , POut = xxxx, SOut = 1 
# clk = 0 , sel = 0000  , SIn = 1 , PIn = xxxx , POut = xxxx, SOut = 1 
# xxx1
# clk = 1 , sel = 0000  , SIn = 1 , PIn = xxxx , POut = xxxx, SOut = 1 
# clk = 0 , sel = 0000  , SIn = 1 , PIn = xxxx , POut = xxxx, SOut = 1 
# xxx1
# clk = 1 , sel = 0000  , SIn = 1 , PIn = xxxx , POut = xxxx, SOut = 1 
# clk = 0 , sel = 0101  , SIn = 1 , PIn = xxxx , POut = xxxx, SOut = 1 
# xxx1
# clk = 1 , sel = 1100  , SIn = 1 , PIn = xxxx , POut = xxx1, SOut = 1 
# clk = 0 , sel = 1100  , SIn = 1 , PIn = xxxx , POut = xxx1, SOut = 1 
# xxx1
# clk = 1 , sel = 1100  , SIn = 1 , PIn = xxxx , POut = xxx1, SOut = 1 
# clk = 0 , sel = 1100  , SIn = 1 , PIn = xxxx , POut = xxx1, SOut = 1 
# xxx1
# clk = 1 , sel = 1100  , SIn = 1 , PIn = xxxx , POut = xxx1, SOut = 1 
# clk = 0 , sel = 1100  , SIn = 1 , PIn = xxxx , POut = xxx1, SOut = 1 
# xxx1
# clk = 1 , sel = 1100  , SIn = 1 , PIn = xxxx , POut = xxx1, SOut = 1 
# clk = 0 , sel = 1100  , SIn = 1 , PIn = xxxx , POut = xxx1, SOut = 1 
# xxx1
# clk = 1 , sel = 1100  , SIn = 1 , PIn = xxxx , POut = xxx1, SOut = 1 
# clk = 0 , sel = 1100  , SIn = 1 , PIn = xxxx , POut = xxx1, SOut = 1 
# xxx1
# clk = 1 , sel = 1100  , SIn = 1 , PIn = xxxx , POut = xxx1, SOut = 1 
# clk = 0 , sel = 1100  , SIn = 1 , PIn = xxxx , POut = xxx1, SOut = 1 
# xxx1
# clk = 1 , sel = 1100  , SIn = 1 , PIn = xxxx , POut = xxx1, SOut = 1 
# clk = 0 , sel = 1100  , SIn = 1 , PIn = xxxx , POut = xxx1, SOut = 1 
# xxx1
# clk = 1 , sel = 1100  , SIn = 1 , PIn = xxxx , POut = xxx1, SOut = 1 
# clk = 0 , sel = 1100  , SIn = 1 , PIn = xxxx , POut = xxx1, SOut = 1 
# xxx1
# clk = 1 , sel = 1100  , SIn = 1 , PIn = xxxx , POut = xxx1, SOut = 1 
# clk = 0 , sel = 1100  , SIn = 1 , PIn = xxxx , POut = xxx1, SOut = 1 
# xxx1
# clk = 1 , sel = 1100  , SIn = 1 , PIn = xxxx , POut = xxx1, SOut = 1 
# clk = 0 , sel = 1100  , SIn = 1 , PIn = xxxx , POut = xxx1, SOut = 1 
# xxx1
# clk = 1 , sel = 1100  , SIn = 1 , PIn = xxxx , POut = xxx1, SOut = 1 
# ** Warning: (vlib-34) Library already exists at "work".
# Modifying modelsim.ini
# Model Technology ModelSim ALTERA vlog 6.3g_p1 Compiler 2008.08 Aug 13 2008
# -- Compiling module Rigester
# -- Compiling module TOP
# 
# Top level modules:
# 	TOP
# vsim TOP 
# Loading work.TOP
# Loading work.Rigester
# clk = 0 , sel = xxxx  , SIn = x , PIn = xxxx , POut = xxxx, SOut = x 
# xxxx
# clk = 1 , sel = 0000  , SIn = x , PIn = xxxx , POut = xxxx, SOut = x 
# clk = 0 , sel = 0000  , SIn = 1 , PIn = xxxx , POut = xxxx, SOut = x 
# xxxx
